(module rohs_symbol (layer F.Cu) (tedit 56F3A298)
  (fp_text reference G*** (at 0 -2.54) (layer F.SilkS) hide
    (effects (font (thickness 0.3)))
  )
  (fp_text value LOGO (at 0 2.54) (layer F.SilkS) hide
    (effects (font (thickness 0.3)))
  )
  (fp_poly (pts (xy 0.032086 0.466356) (xy 0.099912 0.50681) (xy 0.133523 0.592104) (xy 0.123021 0.728371)
    (xy 0.036257 0.829117) (xy -0.08591 0.8636) (xy -0.144772 0.904468) (xy -0.1524 0.9398)
    (xy -0.193064 1.007149) (xy -0.2286 1.016) (xy -0.274554 0.990916) (xy -0.298212 0.902898)
    (xy -0.3048 0.7366) (xy -0.3048 0.676784) (xy -0.148961 0.676784) (xy -0.119915 0.726752)
    (xy -0.057757 0.738566) (xy -0.008442 0.680441) (xy 0 0.632001) (xy -0.04073 0.567269)
    (xy -0.0762 0.5588) (xy -0.1401 0.596682) (xy -0.148961 0.676784) (xy -0.3048 0.676784)
    (xy -0.3048 0.4572) (xy -0.102568 0.4572) (xy 0.032086 0.466356)) (layer F.SilkS) (width 0.01))
  (fp_poly (pts (xy -2.02099 0.310406) (xy -1.942717 0.343958) (xy -1.9304 0.373955) (xy -1.970971 0.422856)
    (xy -2.04779 0.42067) (xy -2.168476 0.430832) (xy -2.247632 0.494603) (xy -2.261888 0.58526)
    (xy -2.2352 0.635) (xy -2.136688 0.695753) (xy -2.05118 0.7112) (xy -1.952296 0.732813)
    (xy -1.937582 0.781791) (xy -2.010755 0.832764) (xy -2.099624 0.85894) (xy -2.177871 0.84773)
    (xy -2.286 0.798174) (xy -2.392606 0.696746) (xy -2.429756 0.558524) (xy -2.390247 0.422792)
    (xy -2.36133 0.387386) (xy -2.266298 0.333242) (xy -2.140851 0.307208) (xy -2.02099 0.310406)) (layer F.SilkS) (width 0.01))
  (fp_poly (pts (xy -1.488972 0.466229) (xy -1.372821 0.519408) (xy -1.321726 0.621356) (xy -1.345245 0.735738)
    (xy -1.401885 0.797253) (xy -1.533527 0.858743) (xy -1.64867 0.826066) (xy -1.698172 0.783771)
    (xy -1.761124 0.676784) (xy -1.622161 0.676784) (xy -1.593115 0.726752) (xy -1.530957 0.738566)
    (xy -1.481642 0.680441) (xy -1.4732 0.632001) (xy -1.51393 0.567269) (xy -1.5494 0.5588)
    (xy -1.6133 0.596682) (xy -1.622161 0.676784) (xy -1.761124 0.676784) (xy -1.768234 0.664701)
    (xy -1.750578 0.558091) (xy -1.658761 0.484519) (xy -1.506338 0.464563) (xy -1.488972 0.466229)) (layer F.SilkS) (width 0.01))
  (fp_poly (pts (xy -0.8255 0.467578) (xy -0.4826 0.4826) (xy -0.466682 0.6477) (xy -0.468963 0.767355)
    (xy -0.512642 0.811286) (xy -0.530182 0.8128) (xy -0.594592 0.768912) (xy -0.6096 0.681566)
    (xy -0.634557 0.588726) (xy -0.688649 0.575835) (xy -0.740707 0.641074) (xy -0.754231 0.690009)
    (xy -0.790323 0.802117) (xy -0.833033 0.830406) (xy -0.866603 0.769004) (xy -0.872329 0.734006)
    (xy -0.90547 0.619924) (xy -0.955762 0.570751) (xy -1.000143 0.594905) (xy -1.016 0.681566)
    (xy -1.041772 0.786874) (xy -1.0922 0.8128) (xy -1.148221 0.774773) (xy -1.168191 0.652896)
    (xy -1.1684 0.632678) (xy -1.1684 0.452557) (xy -0.8255 0.467578)) (layer F.SilkS) (width 0.01))
  (fp_poly (pts (xy 1.211656 0.465695) (xy 1.260653 0.508787) (xy 1.27 0.6096) (xy 1.27018 0.730392)
    (xy 1.270591 0.799161) (xy 1.22802 0.826377) (xy 1.129604 0.842439) (xy 1.020803 0.843954)
    (xy 0.947075 0.82753) (xy 0.942201 0.823668) (xy 0.91431 0.739705) (xy 0.93282 0.7112)
    (xy 1.0668 0.7112) (xy 1.085386 0.753014) (xy 1.100666 0.745066) (xy 1.106746 0.684778)
    (xy 1.100666 0.677333) (xy 1.070466 0.684306) (xy 1.0668 0.7112) (xy 0.93282 0.7112)
    (xy 0.965882 0.660286) (xy 1.016 0.635) (xy 1.09814 0.587937) (xy 1.1176 0.551953)
    (xy 1.077969 0.524345) (xy 1.016 0.5334) (xy 0.934189 0.538258) (xy 0.9144 0.511423)
    (xy 0.959045 0.475587) (xy 1.068829 0.457669) (xy 1.0922 0.4572) (xy 1.211656 0.465695)) (layer F.SilkS) (width 0.01))
  (fp_poly (pts (xy 2.264529 0.414466) (xy 2.28704 0.486597) (xy 2.255132 0.546124) (xy 2.216981 0.62283)
    (xy 2.223063 0.700075) (xy 2.264191 0.73854) (xy 2.297913 0.729237) (xy 2.331806 0.735633)
    (xy 2.327515 0.764453) (xy 2.261714 0.842876) (xy 2.163842 0.830668) (xy 2.154288 0.824674)
    (xy 2.093903 0.736927) (xy 2.064434 0.604957) (xy 2.071161 0.47644) (xy 2.107965 0.406594)
    (xy 2.194657 0.378148) (xy 2.264529 0.414466)) (layer F.SilkS) (width 0.01))
  (fp_poly (pts (xy 0.428919 0.331991) (xy 0.452323 0.426136) (xy 0.4572 0.5588) (xy 0.449042 0.718531)
    (xy 0.420799 0.796546) (xy 0.381 0.8128) (xy 0.33308 0.785608) (xy 0.309676 0.691463)
    (xy 0.3048 0.5588) (xy 0.312957 0.399068) (xy 0.3412 0.321053) (xy 0.381 0.3048)
    (xy 0.428919 0.331991)) (layer F.SilkS) (width 0.01))
  (fp_poly (pts (xy 0.742158 0.495755) (xy 0.761862 0.618806) (xy 0.762 0.635) (xy 0.745476 0.766503)
    (xy 0.692739 0.812478) (xy 0.6858 0.8128) (xy 0.629441 0.774244) (xy 0.609737 0.651193)
    (xy 0.6096 0.635) (xy 0.626123 0.503496) (xy 0.67886 0.457521) (xy 0.6858 0.4572)
    (xy 0.742158 0.495755)) (layer F.SilkS) (width 0.01))
  (fp_poly (pts (xy 1.6637 0.466833) (xy 1.790282 0.486283) (xy 1.848008 0.535299) (xy 1.869617 0.642568)
    (xy 1.870118 0.6477) (xy 1.867837 0.767355) (xy 1.824158 0.811286) (xy 1.806618 0.8128)
    (xy 1.742208 0.768912) (xy 1.7272 0.681566) (xy 1.703567 0.588371) (xy 1.651905 0.575146)
    (xy 1.601068 0.637679) (xy 1.583966 0.702479) (xy 1.553346 0.797796) (xy 1.514195 0.804688)
    (xy 1.482489 0.733326) (xy 1.4732 0.631933) (xy 1.479055 0.514257) (xy 1.516663 0.466665)
    (xy 1.616082 0.463106) (xy 1.6637 0.466833)) (layer F.SilkS) (width 0.01))
  (fp_poly (pts (xy 0.709132 0.341676) (xy 0.7112 0.3556) (xy 0.693867 0.405079) (xy 0.688798 0.4064)
    (xy 0.645426 0.370802) (xy 0.635 0.3556) (xy 0.639027 0.308788) (xy 0.657401 0.3048)
    (xy 0.709132 0.341676)) (layer F.SilkS) (width 0.01))
  (fp_poly (pts (xy -1.124803 -0.58785) (xy -1.00855 -0.518846) (xy -0.971547 -0.396962) (xy -0.979831 -0.318705)
    (xy -0.975779 -0.170654) (xy -0.933705 -0.039013) (xy -0.88925 0.058391) (xy -0.905428 0.095644)
    (xy -0.990385 0.1016) (xy -1.116137 0.060381) (xy -1.177644 -0.0254) (xy -1.249688 -0.126832)
    (xy -1.320184 -0.145909) (xy -1.365605 -0.082631) (xy -1.3716 -0.0254) (xy -1.395413 0.074188)
    (xy -1.4732 0.1016) (xy -1.526594 0.092006) (xy -1.557183 0.048742) (xy -1.571173 -0.049917)
    (xy -1.574772 -0.225695) (xy -1.5748 -0.254) (xy -1.5748 -0.378002) (xy -1.3716 -0.378002)
    (xy -1.33538 -0.317007) (xy -1.258652 -0.310494) (xy -1.19029 -0.36128) (xy -1.194915 -0.426895)
    (xy -1.255651 -0.477433) (xy -1.329076 -0.477436) (xy -1.331075 -0.47625) (xy -1.368218 -0.409288)
    (xy -1.3716 -0.378002) (xy -1.5748 -0.378002) (xy -1.5748 -0.6096) (xy -1.327021 -0.6096)
    (xy -1.124803 -0.58785)) (layer F.SilkS) (width 0.01))
  (fp_poly (pts (xy 0.508 -1.504933) (xy 0.483526 -1.261962) (xy 0.401642 -1.063836) (xy 0.249651 -0.893236)
    (xy 0.014859 -0.732843) (xy -0.106145 -0.667117) (xy -0.290449 -0.561021) (xy -0.380521 -0.480094)
    (xy -0.379373 -0.420074) (xy -0.307715 -0.381926) (xy -0.215711 -0.310422) (xy -0.171898 -0.223168)
    (xy -0.178566 -0.083299) (xy -0.257459 0.024233) (xy -0.381799 0.089929) (xy -0.524811 0.104292)
    (xy -0.65972 0.057824) (xy -0.73904 -0.021994) (xy -0.768638 -0.116296) (xy -0.548359 -0.116296)
    (xy -0.536969 -0.067181) (xy -0.505478 -0.009914) (xy -0.460068 -0.027968) (xy -0.419048 -0.067181)
    (xy -0.361579 -0.138787) (xy -0.381024 -0.197237) (xy -0.419048 -0.23762) (xy -0.485831 -0.294887)
    (xy -0.520115 -0.276833) (xy -0.536969 -0.23762) (xy -0.548359 -0.116296) (xy -0.768638 -0.116296)
    (xy -0.784514 -0.166877) (xy -0.736781 -0.298911) (xy -0.60399 -0.398191) (xy -0.58122 -0.407534)
    (xy -0.469117 -0.496907) (xy -0.375205 -0.660091) (xy -0.37395 -0.663207) (xy -0.253669 -0.859529)
    (xy -0.046377 -1.073538) (xy 0.009795 -1.121706) (xy 0.145808 -1.238733) (xy 0.238521 -1.326067)
    (xy 0.27208 -1.368521) (xy 0.269337 -1.370341) (xy 0.187387 -1.335618) (xy 0.060986 -1.248904)
    (xy -0.084096 -1.131634) (xy -0.222091 -1.005247) (xy -0.32723 -0.89118) (xy -0.357284 -0.849047)
    (xy -0.456821 -0.6858) (xy -0.457011 -0.847003) (xy -0.409985 -1.031234) (xy -0.280172 -1.211162)
    (xy -0.085099 -1.366382) (xy 0.049121 -1.436217) (xy 0.212753 -1.518589) (xy 0.354086 -1.608508)
    (xy 0.3937 -1.64054) (xy 0.508 -1.744911) (xy 0.508 -1.504933)) (layer F.SilkS) (width 0.01))
  (fp_poly (pts (xy 0.713793 -0.600007) (xy 0.744382 -0.556743) (xy 0.758372 -0.458084) (xy 0.761971 -0.282306)
    (xy 0.762 -0.254) (xy 0.759258 -0.067122) (xy 0.746897 0.039938) (xy 0.718709 0.088904)
    (xy 0.668487 0.1015) (xy 0.6604 0.1016) (xy 0.579393 0.070246) (xy 0.5588 -0.019476)
    (xy 0.520244 -0.131132) (xy 0.4523 -0.168401) (xy 0.304519 -0.175867) (xy 0.220517 -0.108075)
    (xy 0.2032 -0.019965) (xy 0.177106 0.076828) (xy 0.1016 0.1016) (xy 0.048206 0.092006)
    (xy 0.017617 0.048742) (xy 0.003627 -0.049917) (xy 0.000028 -0.225695) (xy 0 -0.254)
    (xy 0.002741 -0.440879) (xy 0.015102 -0.547939) (xy 0.04329 -0.596905) (xy 0.093512 -0.609501)
    (xy 0.1016 -0.6096) (xy 0.18127 -0.579835) (xy 0.2032 -0.4826) (xy 0.216484 -0.396716)
    (xy 0.276262 -0.361556) (xy 0.381 -0.3556) (xy 0.501238 -0.365089) (xy 0.550462 -0.407788)
    (xy 0.5588 -0.4826) (xy 0.582612 -0.582189) (xy 0.6604 -0.6096) (xy 0.713793 -0.600007)) (layer F.SilkS) (width 0.01))
  (fp_poly (pts (xy 1.391912 -0.570999) (xy 1.459229 -0.5139) (xy 1.462173 -0.503792) (xy 1.451223 -0.450323)
    (xy 1.374761 -0.437902) (xy 1.310189 -0.443769) (xy 1.143 -0.464154) (xy 1.27 -0.360207)
    (xy 1.367089 -0.287915) (xy 1.428205 -0.255265) (xy 1.429664 -0.25513) (xy 1.479887 -0.211155)
    (xy 1.497925 -0.113549) (xy 1.476575 -0.007163) (xy 1.47123 0.00368) (xy 1.391905 0.076713)
    (xy 1.245126 0.101412) (xy 1.225879 0.1016) (xy 1.092234 0.093411) (xy 1.007015 0.073175)
    (xy 0.999066 0.067733) (xy 0.960202 -0.009613) (xy 1.007542 -0.05753) (xy 1.1176 -0.061637)
    (xy 1.235024 -0.059354) (xy 1.261709 -0.095396) (xy 1.197669 -0.162412) (xy 1.117278 -0.213538)
    (xy 0.999887 -0.318018) (xy 0.968219 -0.436365) (xy 1.027353 -0.546621) (xy 1.038081 -0.556046)
    (xy 1.140499 -0.597104) (xy 1.272056 -0.600411) (xy 1.391912 -0.570999)) (layer F.SilkS) (width 0.01))
)
